Text_mining_BoW__Pełna_analiza_jednego_pliku.R
…
tidy_tokeny <- as_tibble(freq_df)

Analiza sentymentu przy użyciu słownika Loughran

# Analiza sentymentu przy użyciu słownika Loughran ----

# Użycie inner_join()
tidy_tokeny %>%
  inner_join(loughran, relationship = "many-to-many")

## # A tibble: 128 × 3
##    word       freq sentiment
##    <chr>     <dbl> <chr>    
##  1 honor        14 positive 
##  2 illegal      11 negative 
##  3 beautiful     9 positive 
##  4 cut           8 negative 
##  5 force         8 negative 
##  6 happiness     8 positive 
##  7 winning       8 positive 
##  8 dangerous     7 negative 
##  9 bad           6 negative 
## 10 law           6 litigious
## # ℹ 118 more rows
…
# Zliczanie, które słowa są najczęstsze
# dla danego sentymentu
sentiment_review %>%
  group_by(sentiment) %>%
  arrange(desc(freq)) %>%
  ungroup()

## # A tibble: 128 × 3
##    word       freq sentiment
##    <chr>     <dbl> <chr>    
##  1 honor        14 positive 
##  2 illegal      11 negative 
##  3 beautiful     9 positive 
##  4 cut           8 negative 
##  5 force         8 negative 
##  6 happiness     8 positive 
##  7 winning       8 positive 
##  8 dangerous     7 negative 
##  9 bad           6 negative 
## 10 law           6 litigious
## # ℹ 118 more rows
…
# Zliczanie, które słowa są najczęstsze
# dla danego sentymentu
sentiment_review_nrc %>%
  group_by(sentiment) %>%
  arrange(desc(freq)) %>%
  ungroup()

## # A tibble: 833 × 3
##    word    freq sentiment   
##    <chr>  <dbl> <chr>       
##  1 time      30 anticipation
##  2 nation    21 trust       
##  3 happen    19 anticipation
##  4 tax       15 negative    
##  5 tax       15 sadness     
##  6 honor     14 positive    
##  7 honor     14 trust       
##  8 money     14 anger       
##  9 money     14 anticipation
## 10 money     14 joy         
## # ℹ 823 more rows
…
## # A tibble: 2 × 2
##   sentiment     n
##   <chr>     <int>
## 1 negative    118
## 2 positive     99

# Zliczanie, które słowa są najczęstsze
# dla danego sentymentu
sentiment_review_bing %>%
  group_by(sentiment) %>%
  arrange(desc(freq)) %>%
  ungroup()

## # A tibble: 217 × 3
##    word       freq sentiment
##    <chr>     <dbl> <chr>    
##  1 honor        14 positive 
##  2 love         13 positive 
##  3 protect      13 positive 
##  4 illegal      11 negative 
##  5 beautiful     9 positive 
##  6 proud         9 positive 
##  7 wonderful     9 positive 
##  8 dead          8 negative 
##  9 freedom       8 positive 
## 10 happiness     8 positive 
## # ℹ 207 more rows
…
# Zliczanie, które słowa są najczęstsze
# dla danego sentymentu
sentiment_review_afinn %>%
  group_by(value) %>%
  arrange(desc(freq)) %>%
  ungroup()

## # A tibble: 194 × 3
##    word       freq value
##    <chr>     <dbl> <int>
##  1 care         18     2
##  2 honor        14     2
##  3 united       14     1
##  4 war          14    -2
##  5 love         13     3
##  6 protect      13     1
##  7 illegal      11    -3
##  8 stop         10    -1
##  9 beautiful     9     3
## 10 proud         9     2
## # ℹ 184 more rows
…
